<?xml version="1.0" standalone="no"?>
<!DOCTYPE svg PUBLIC "-//W3C//DTD SVG 1.1//EN" "http://www.w3.org/Graphics/SVG/1.1/DTD/svg11.dtd" >
<svg xmlns="http://www.w3.org/2000/svg">
<metadata>
This is a custom SVG font generated by IcoMoon.
<iconset grid="16"></iconset>
</metadata>
<defs>
<font id="kl" horiz-adv-x="512" >
<font-face units-per-em="512" ascent="480" descent="-32" />
<missing-glyph horiz-adv-x="512" />
<glyph unicode="&#x69;" d="M 160,160.747C 147.2,167.040, 132.693,170.667, 117.333,170.667c-53.013,0-96-42.987-96-96c0-53.024, 42.987-96, 96-96
	s 96,42.976, 96,96L 213.333,288 c0,11.733, 9.6,21.333, 21.333,21.333l 181.333,0 c 11.733,0, 21.333-9.6, 21.333-21.333l0-127.253 C 424.533,167.040, 410.016,170.667, 394.667,170.667c-53.024,0-96-42.987-96-96c0-53.024, 42.976-96, 96-96
	s 96,42.976, 96,96L 490.667,435.2 C 490.667,448.213, 480.213,458.667, 467.2,458.667L 183.467,458.667 C 170.453,458.667, 160,448.213, 160,435.2L 160,160.747 z"  />
<glyph unicode="&#x66;" d="M 287.935-32L 192-32 L 192,224 l-64,0 l0,88.225 l 64,0.029l-0.104,51.976C 191.896,436.206, 211.413,480, 296.195,480l 70.588,0 l0-88.242 l-44.115,0 
	c-33.016,0-34.603-12.328-34.603-35.342l-0.131-44.162l 79.345,0 l-9.352-88.225L 288,224L 287.935-32z"  />
<glyph unicode="&#x74;" d="M 512,382.791c-18.838-8.354-39.082-14.001-60.33-16.54c 21.686,13, 38.343,33.585, 46.186,58.115
	c-20.298-12.039-42.778-20.78-66.705-25.49c-19.16,20.415-46.461,33.17-76.673,33.17c-58.011,0-105.044-47.029-105.044-105.039
	c0-8.233, 0.929-16.25, 2.72-23.939c-87.3,4.382-164.701,46.2-216.509,109.753c-9.042-15.514-14.223-33.558-14.223-52.809
	c0-36.444, 18.544-68.596, 46.73-87.433c-17.219,0.546-33.416,5.271-47.577,13.139c-0.010-0.438-0.010-0.878-0.010-1.321
	c0-50.894, 36.209-93.348, 84.261-103c-8.813-2.4-18.094-3.686-27.674-3.686c-6.769,0-13.349,0.66-19.764,1.886
	c 13.368-41.73, 52.16-72.103, 98.126-72.948c-35.95-28.175-81.243-44.967-130.458-44.967c-8.479,0-16.84,0.497-25.058,1.47
	c 46.486-29.805, 101.701-47.197, 161.021-47.197c 193.211,0, 298.868,160.062, 298.868,298.872c0,4.554-0.103,9.084-0.305,13.59
	C 480.11,343.227, 497.918,361.727, 512,382.791z"  />
<glyph unicode="&#x72;" d="M 68.147,104.535c-37.598,0-68.146-30.667-68.146-68.038c0-37.577, 30.55-67.901, 68.146-67.901
		c 37.733,0, 68.247,30.324, 68.247,67.901C 136.393,73.868, 105.882,104.535, 68.147,104.535zM 0.078,306.035l0-98.129 c 63.892,0, 123.979-24.986, 169.229-70.256c 45.192-45.159, 70.141-105.518, 70.141-169.65l 98.561,0 
		C 338.008,154.41, 186.368,306.035, 0.078,306.035zM 0.194,480l0-98.178 c 227.891,0, 413.378-185.667, 413.378-413.822L 512-32 C 512,250.235, 282.373,480, 0.194,480z"  />
<glyph unicode="&#x20;" horiz-adv-x="256" />
<glyph class="hidden" unicode="&#xf000;" d="M0,480L 512 -32L0 -32 z" horiz-adv-x="0" />
</font></defs></svg>