<?xml version="1.0" encoding="UTF-8" standalone="no"?>
<!-- Created with Inkscape (http://www.inkscape.org/) -->

<svg
   xmlns:osb="http://www.openswatchbook.org/uri/2009/osb"
   xmlns:dc="http://purl.org/dc/elements/1.1/"
   xmlns:cc="http://creativecommons.org/ns#"
   xmlns:rdf="http://www.w3.org/1999/02/22-rdf-syntax-ns#"
   xmlns:svg="http://www.w3.org/2000/svg"
   xmlns="http://www.w3.org/2000/svg"
   xmlns:xlink="http://www.w3.org/1999/xlink"
   xmlns:sodipodi="http://sodipodi.sourceforge.net/DTD/sodipodi-0.dtd"
   xmlns:inkscape="http://www.inkscape.org/namespaces/inkscape"
   width="500"
   height="500"
   id="svg2"
   version="1.1"
   inkscape:version="0.48.2 r9819"
   sodipodi:docname="logo.svg"
   inkscape:export-filename="c:\Users\naf12\Downloads\logo.png"
   inkscape:export-xdpi="90"
   inkscape:export-ydpi="90">
  <defs
     id="defs4">
    <linearGradient
       id="linearGradient5406">
      <stop
         style="stop-color:#00ff00;stop-opacity:1;"
         offset="0"
         id="stop5408" />
      <stop
         style="stop-color:#00ff00;stop-opacity:1;"
         offset="1"
         id="stop5410" />
    </linearGradient>
    <linearGradient
       id="linearGradient5396">
      <stop
         style="stop-color:#5a5a5a;stop-opacity:1;"
         offset="0"
         id="stop5398" />
      <stop
         id="stop5404"
         offset="0.5"
         style="stop-color:#646464;stop-opacity:0.58119661;" />
      <stop
         style="stop-color:#5a5a5a;stop-opacity:0.32478634;"
         offset="1"
         id="stop5400" />
    </linearGradient>
    <linearGradient
       id="linearGradient5376">
      <stop
         style="stop-color:#787878;stop-opacity:0.95726496;"
         offset="0"
         id="stop5378" />
      <stop
         style="stop-color:#4d4d4d;stop-opacity:0;"
         offset="1"
         id="stop5380" />
    </linearGradient>
    <linearGradient
       id="linearGradient5368"
       osb:paint="solid">
      <stop
         style="stop-color:#464646;stop-opacity:0.82352942;"
         offset="0"
         id="stop5370" />
    </linearGradient>
    <linearGradient
       id="linearGradient5340">
      <stop
         style="stop-color:#6e6e6e;stop-opacity:1;"
         offset="0"
         id="stop5342" />
      <stop
         style="stop-color:#141414;stop-opacity:1;"
         offset="1"
         id="stop5344" />
    </linearGradient>
    <linearGradient
       id="linearGradient5330">
      <stop
         style="stop-color:#1e461e;stop-opacity:1;"
         offset="0"
         id="stop5332" />
      <stop
         style="stop-color:#00ff00;stop-opacity:1;"
         offset="1"
         id="stop5334" />
    </linearGradient>
    <linearGradient
       id="linearGradient3884"
       osb:paint="gradient">
      <stop
         style="stop-color:#000000;stop-opacity:1;"
         offset="0"
         id="stop3886" />
      <stop
         style="stop-color:#000000;stop-opacity:0;"
         offset="1"
         id="stop3888" />
    </linearGradient>
    <radialGradient
       inkscape:collect="always"
       xlink:href="#linearGradient5330"
       id="radialGradient5336"
       cx="207.00853"
       cy="362.09296"
       fx="207.00853"
       fy="362.09296"
       r="44.585587"
       gradientTransform="matrix(6.301182,1.1681553e-6,-1.1119084e-7,2.3739606,-1097.3898,-497.50171)"
       gradientUnits="userSpaceOnUse" />
    <radialGradient
       inkscape:collect="always"
       xlink:href="#linearGradient5340"
       id="radialGradient5346"
       cx="207.23438"
       cy="360.03931"
       fx="207.23438"
       fy="360.03931"
       r="52.421875"
       gradientTransform="matrix(3.2979723,0,0,4.6388684,-279.1407,-1484.727)"
       gradientUnits="userSpaceOnUse" />
    <radialGradient
       inkscape:collect="always"
       xlink:href="#linearGradient5376"
       id="radialGradient5384"
       cx="206.99857"
       cy="397.09518"
       fx="206.99857"
       fy="397.09518"
       r="36.109375"
       gradientTransform="matrix(1,0,0,0.82778018,0,68.387657)"
       gradientUnits="userSpaceOnUse" />
    <radialGradient
       inkscape:collect="always"
       xlink:href="#linearGradient5396"
       id="radialGradient5402"
       cx="206.99857"
       cy="397.09518"
       fx="206.99857"
       fy="397.09518"
       r="36.109375"
       gradientTransform="matrix(1,0,0,0.82778018,0,68.387657)"
       gradientUnits="userSpaceOnUse" />
    <filter
       inkscape:collect="always"
       id="filter5432"
       color-interpolation-filters="sRGB">
      <feGaussianBlur
         inkscape:collect="always"
         stdDeviation="0.975"
         id="feGaussianBlur5434" />
    </filter>
    <filter
       inkscape:collect="always"
       id="filter5636"
       color-interpolation-filters="sRGB">
      <feGaussianBlur
         inkscape:collect="always"
         stdDeviation="0.19746479"
         id="feGaussianBlur5638" />
    </filter>
    <filter
       inkscape:collect="always"
       id="filter5640"
       color-interpolation-filters="sRGB">
      <feGaussianBlur
         inkscape:collect="always"
         stdDeviation="0.19746479"
         id="feGaussianBlur5642" />
    </filter>
    <filter
       inkscape:collect="always"
       id="filter5648"
       color-interpolation-filters="sRGB">
      <feGaussianBlur
         inkscape:collect="always"
         stdDeviation="0.16488835"
         id="feGaussianBlur5650" />
    </filter>
  </defs>
  <sodipodi:namedview
     id="base"
     pagecolor="#ffffff"
     bordercolor="#666666"
     borderopacity="1.0"
     inkscape:pageopacity="0.0"
     inkscape:pageshadow="2"
     inkscape:zoom="2.51"
     inkscape:cx="209.88511"
     inkscape:cy="485.90145"
     inkscape:document-units="px"
     inkscape:current-layer="layer2"
     showgrid="false"
     inkscape:window-width="1920"
     inkscape:window-height="1058"
     inkscape:window-x="-8"
     inkscape:window-y="-8"
     inkscape:window-maximized="1"
     fit-margin-top="0"
     fit-margin-left="0"
     fit-margin-right="0"
     fit-margin-bottom="0"
     showborder="true"
     inkscape:showpageshadow="false" />
  <metadata
     id="metadata7">
    <rdf:RDF>
      <cc:Work
         rdf:about="">
        <dc:format>image/svg+xml</dc:format>
        <dc:type
           rdf:resource="http://purl.org/dc/dcmitype/StillImage" />
        <dc:title></dc:title>
      </cc:Work>
    </rdf:RDF>
  </metadata>
  <g
     inkscape:groupmode="layer"
     id="layer2"
     inkscape:label="helmet"
     style="display:inline"
     transform="translate(-154.3125,65.72509)">
    <path
       style="fill:url(#radialGradient5346);fill-opacity:1;stroke:#5a5a5a;stroke-width:3.29797244000000010;stroke-opacity:0.39215686000000000;stroke-linejoin:round"
       d="m 242.66036,-57.7302 c -3.59614,150.510988 22.29568,300.0826 -11.23374,454.61941 61.59139,21.25907 117.71741,31.16669 171.49456,31.64853 l 0,0.0874 c 0.47773,-10e-4 0.96476,0.002 1.44286,0 0.44392,0.002 0.89619,-10e-4 1.33978,0 l 0,-0.0874 C 459.481,428.0558 515.60703,418.14828 577.19838,396.88921 543.669,242.3524 569.56084,92.780788 565.9647,-57.7302 l -24.32253,73.088822 c -38.45875,-34.051608 -85.97273,-50.993786 -135.93835,-49.833297 -0.93516,-0.03425 -1.84915,0.02228 -2.78264,0 -49.96558,-1.160489 -97.4796,15.781689 -135.93827,49.833297 L 242.66036,-57.7302 z"
       id="path3010"
       inkscape:connector-curvature="0"
       inkscape:export-xdpi="90"
       inkscape:export-ydpi="90" />
  </g>
  <g
     inkscape:groupmode="layer"
     id="layer5"
     inkscape:label="jaw"
     style="display:inline"
     transform="translate(-154.3125,65.72509)">
    <path
       style="fill:url(#radialGradient5402);fill-opacity:1;stroke:url(#radialGradient5384);stroke-width:1px;stroke-linecap:butt;stroke-linejoin:miter;stroke-opacity:1;filter:url(#filter5432)"
       d="m 171.3892,367.70454 2.28125,50 11.34375,8.53125 21.59375,0.25 0,-58.53125 -35.21875,-0.25 z m 71.21875,0 -35.21875,0.25 0,58.53125 21.59375,-0.25 11.34375,-8.53125 2.28125,-50 z"
       id="path3028"
       inkscape:connector-curvature="0"
       transform="matrix(3.2979723,0,0,3.2979723,-278.36307,-1001.9517)" />
  </g>
  <g
     inkscape:groupmode="layer"
     id="layer4"
     inkscape:label="mask"
     style="display:inline"
     transform="translate(-154.3125,65.72509)">
    <path
       style="fill:url(#radialGradient5336);fill-opacity:1;stroke:#00ff00;stroke-width:2;stroke-linecap:butt;stroke-linejoin:round;stroke-miterlimit:4;stroke-opacity:0.07843137000000000;stroke-dasharray:none;filter:url(#filter5648)"
       d="m 170.53978,340.32955 c -2.52493,-0.0274 -5.09901,0.0717 -7.71875,0.3125 0.77706,7.84249 0.53571,15.14092 5.1875,27 l 29.875,9.21875 8.9375,6.71875 0,0.28125 0.1875,-0.15625 0.1875,0.15625 0,-0.28125 8.9375,-6.71875 29.875,-9.21875 c 4.65179,-11.85908 4.41044,-19.15751 5.1875,-27 -2.61974,-0.24083 -5.19382,-0.3399 -7.71875,-0.3125 -10.94137,0.11875 -20.99504,2.75068 -30.15625,7.90625 l -6.125,-1.875 0,-0.125 -0.1875,0.0625 -0.1875,-0.0625 0,0.125 -6.125,1.875 c -9.16121,-5.15557 -19.21488,-7.7875 -30.15625,-7.90625 z"
       id="path3025"
       inkscape:connector-curvature="0"
       transform="matrix(3.2979723,0,0,3.2979723,-278.3959,-1001.9517)" />
  </g>
  <g
     inkscape:groupmode="layer"
     id="layer1"
     inkscape:label="eyes"
     style="display:inline"
     transform="translate(-154.3125,65.72509)">
    <path
       sodipodi:nodetypes="cccc"
       style="fill:#ffffff;display:inline;filter:url(#filter5640)"
       d="m 212.58448,363.86737 26.07325,-13.68485 c 0.96017,1.79514 2.51427,6.20596 -0.72026,9.21927 -8.83471,5.36319 -16.88223,3.35476 -25.35299,4.46558 z"
       id="path3086"
       inkscape:connector-curvature="0"
       transform="matrix(3.2979723,0,0,3.2979723,-279.80431,-1001.9517)" />
    <path
       inkscape:connector-curvature="0"
       id="path3084"
       d="M 201.88555,363.86737 175.8123,350.18252 c -0.96017,1.79514 -2.51427,6.20596 0.72026,9.21927 8.83471,5.36319 16.88223,3.35476 25.35299,4.46558 z"
       style="fill:#ffffff;display:inline;filter:url(#filter5636)"
       sodipodi:nodetypes="cccc"
       transform="matrix(3.2979723,0,0,3.2979723,-278.48137,-1001.9517)" />
  </g>
</svg>
